CalculationMode = td
ExperimentalFeatures = yes
FromScratch = yes
Dimensions = 3

%Systems
 "benzene" | electronic
 "maxwell" | maxwell
%

XYZCoordinates = "12-tddft-currents-to-maxwell.00-benzene.xyz"
UnitsXYZFiles = angstrom_units

MaxwellCouplingMode = full_minimal_coupling
CalculateDiamagneticCurrent = yes

BoxShape = parallelepiped
%Lsize
 3.0*angstrom | 3.0*angstrom | 2.0*angstrom
%
Spacing = 0.2*angstrom

MoveIons = no
InteractionTiming = timing_retarded
TDSystemPropagator = prop_expmid

benzene.TDTimeStep = 0.02
maxwell.TDTimeStep = 0.001 
TDPropagationTime = 0.4

omega = 12.0 # Ha
ampl = 0.5
tau0 = 0.01 # sigma
t0 = 0.15

%TDExternalFields
 electric_field | 1 | 0 | 0 | omega | "gauss"
%

%TDFunctions
 "gauss" | tdf_gaussian | ampl | tau0 | t0
%

MaxwellOutputInterval = 200

%Output
 current_dia | plane_z
 current | plane_z
%
OutputInterval = 10

%MaxwellOutput
 electric_field | axis_x
 magnetic_field | axis_z
%
%MaxwellBoundaryConditions
 zero | zero | zero
%

%MaxwellFieldsCoordinate
3.0*angstrom | 0.0 | 0.0
%

PoissonSolver = fft
