CalculationMode = go
GOMethod = fire
GOFireMass = 0.01
ExperimentalFeatures = yes

dist = 3.0

%Coordinates
'Na'  | 0 |  1.5 | -dist
'Na'  | 0 | -1.5 |  dist
%

%GOConstrains
 'Na'  | 0 | 0 | 1
 'Na'  | 0 | 0 | 1
%

Spacing = 0.56692
Radius = 13.2280

FromScratch = yes
GOCenter = no

FilterPotentials = filter_none

MixField = density

# Fix the Poisson solver to avoid GPU-CPU discrepancy
PoissonSolver = isf
