CalculationMode = gs

FromScratch = yes
TheoryLevel = independent_particles

AllElectronType = full_anc
AllElectronANCParam = 4

SpinComponents = spinors
RelativisticCorrection = scalar_relativistic_zora

%Coordinates
 'H' | 0 | 0 | 0
%

Radius = 7.0
Spacing = 0.3

ExtraStates = 4


