CalculationMode = td

FromScratch = yes
ExperimentalFeatures = yes

bond_length = 2.8

%Coordinates
"C" |  -bond_length/2 |  0.0 |  0.0
"C" |   bond_length/2 |  0.0 |  0.0
%

# We use the default values for Carbon, except the nuclear mass, that is
# divided by 1000.
%Species
"C" | species_pseudo | lmax | 1 | lloc| 0 | mass | 0.0120107000
%

Spacing = 0.6

Radius = 6

MoveIons = no

TDPropagator = caetrs

TDMaxSteps = 20
TDTimeStep = 0.1

TDDeltaStrength = 0.01
TDPolarizationDirection = 1

TDEnergyUpdateIter = 1



PoissonSolver = isf
