ExperimentalFeatures = yes

CalculationMode = gs

Dimensions = 1
DerivativesOrder = 1

BoxShape = parallelepiped
lsize = 6
spacing = 0.1

%Species
 "Al3P" | species_user_defined | potential_formula  |  "-13/sqrt(x^2+1)" | valence | 10
%

%Coordinates
"Al3P" | 0
%

SpinComponents = spin_polarized

XCFunctional = oep_x
OEPLevel = oep_kli

ParKPoints = no
ConvRelDens = 1e-9

EigenSolverTolerance = 1e-10
EigensolverMaxIter = 100
CGEnergyChangeThreshold = 1e-4

