CalculationMode = gs

a = 6.74

PeriodicDimensions = 3

BoxShape = parallelepiped
%LatticeParameters
 a | a | a
%
Spacing = a/12

%Coordinates
  "C" |   0.0       | 0.0       | 0.0
  "C" |   a/2       | a/2       | 0.0
  "C" |   a/2       | 0.0       | a/2
  "C" |   0.0       | a/2       | a/2
  "C" |   a/4       | a/4       | a/4
  "C" |   a/4 + a/2 | a/4 + a/2 | a/4
  "C" |   a/4 + a/2 | a/4       | a/4 + a/2
  "C" |   a/4       | a/4 + a/2 | a/4 + a/2
%

nk = 3

%KPointsGrid
nk | nk | nk
%

KPointsUseSymmetries = no

EigenSolver = chebyshev_filter
OptimizeChebyshevFilterDegree = yes
ChebyshevFilterDegree = 25
ChebyshevFilterLanczosOrder = 4
ExtraStates = 4

FromScratch = yes

XCFunctional = mgga_x_br89 + lda_c_pz_mod
XCUseGaugeIndependentKED = yes
ExperimentalFeatures = yes

ConvRelEv = 1e-8

FilterPotentials = filter_none
StatesPack = yes
